^C:\USERS\LALEH\LOCAL CLOUD\PRIVATE\LALEH\PROJECTS\SCHOOL-BUS\SCHOOLBUSROUTING\SCHOOLBUSROUTING\FORM1.RESX|C:\USERS\LALEH\LOCAL CLOUD\PRIVATE\LALEH\PROJECTS\SCHOOL-BUS\SCHOOLBUSROUTING\SCHOOLBUSROUTING\FORM2.RESX
C:\USERS\LALEH\LOCAL CLOUD\PRIVATE\LALEH\PROJECTS\SCHOOL-BUS\SCHOOLBUSROUTING\SCHOOLBUSROUTING\OBJ\X86\DEBUG\VRP.FORM1.RESOURCES
C:\USERS\LALEH\LOCAL CLOUD\PRIVATE\LALEH\PROJECTS\SCHOOL-BUS\SCHOOLBUSROUTING\SCHOOLBUSROUTING\OBJ\X86\DEBUG\VRP.FORM2.RESOURCES
